<?xml version="1.0" encoding="utf-8"?>
<!DOCTYPE eagle SYSTEM "eagle.dtd">
<eagle version="7.6.0">
<drawing>
<settings>
<setting alwaysvectorfont="no"/>
<setting verticaltext="up"/>
</settings>
<grid distance="0.15" unitdist="mm" unit="mm" style="dots" multiple="1" display="yes" altdistance="0.075" altunitdist="mm" altunit="mm"/>
<layers>
<layer number="1" name="Top" color="4" fill="1" visible="yes" active="yes"/>
<layer number="16" name="Bottom" color="1" fill="1" visible="yes" active="yes"/>
<layer number="17" name="Pads" color="2" fill="1" visible="yes" active="yes"/>
<layer number="18" name="Vias" color="2" fill="1" visible="yes" active="yes"/>
<layer number="19" name="Unrouted" color="6" fill="1" visible="yes" active="yes"/>
<layer number="20" name="Dimension" color="15" fill="1" visible="yes" active="yes"/>
<layer number="21" name="tPlace" color="7" fill="1" visible="yes" active="yes"/>
<layer number="22" name="bPlace" color="7" fill="1" visible="yes" active="yes"/>
<layer number="23" name="tOrigins" color="15" fill="1" visible="yes" active="yes"/>
<layer number="24" name="bOrigins" color="15" fill="1" visible="yes" active="yes"/>
<layer number="25" name="tNames" color="7" fill="1" visible="yes" active="yes"/>
<layer number="26" name="bNames" color="7" fill="1" visible="yes" active="yes"/>
<layer number="27" name="tValues" color="7" fill="1" visible="yes" active="yes"/>
<layer number="28" name="bValues" color="7" fill="1" visible="yes" active="yes"/>
<layer number="29" name="tStop" color="7" fill="3" visible="no" active="yes"/>
<layer number="30" name="bStop" color="7" fill="6" visible="no" active="yes"/>
<layer number="31" name="tCream" color="7" fill="4" visible="no" active="yes"/>
<layer number="32" name="bCream" color="7" fill="5" visible="no" active="yes"/>
<layer number="33" name="tFinish" color="6" fill="3" visible="no" active="yes"/>
<layer number="34" name="bFinish" color="6" fill="6" visible="no" active="yes"/>
<layer number="35" name="tGlue" color="7" fill="4" visible="no" active="yes"/>
<layer number="36" name="bGlue" color="7" fill="5" visible="no" active="yes"/>
<layer number="37" name="tTest" color="7" fill="1" visible="no" active="yes"/>
<layer number="38" name="bTest" color="7" fill="1" visible="no" active="yes"/>
<layer number="39" name="tKeepout" color="4" fill="11" visible="yes" active="yes"/>
<layer number="40" name="bKeepout" color="1" fill="11" visible="yes" active="yes"/>
<layer number="41" name="tRestrict" color="4" fill="10" visible="yes" active="yes"/>
<layer number="42" name="bRestrict" color="1" fill="10" visible="yes" active="yes"/>
<layer number="43" name="vRestrict" color="2" fill="10" visible="yes" active="yes"/>
<layer number="44" name="Drills" color="7" fill="1" visible="no" active="yes"/>
<layer number="45" name="Holes" color="7" fill="1" visible="yes" active="yes"/>
<layer number="46" name="Milling" color="3" fill="1" visible="no" active="yes"/>
<layer number="47" name="Measures" color="7" fill="1" visible="yes" active="yes"/>
<layer number="48" name="Document" color="7" fill="1" visible="yes" active="yes"/>
<layer number="49" name="Reference" color="7" fill="1" visible="yes" active="yes"/>
<layer number="50" name="dxf" color="7" fill="1" visible="no" active="no"/>
<layer number="51" name="tDocu" color="7" fill="1" visible="yes" active="yes"/>
<layer number="52" name="bDocu" color="7" fill="1" visible="yes" active="yes"/>
<layer number="53" name="tGND_GNDA" color="7" fill="9" visible="no" active="no"/>
<layer number="54" name="bGND_GNDA" color="1" fill="9" visible="no" active="no"/>
<layer number="56" name="wert" color="7" fill="1" visible="no" active="no"/>
<layer number="90" name="Modules" color="5" fill="1" visible="no" active="no"/>
<layer number="91" name="Nets" color="2" fill="1" visible="no" active="no"/>
<layer number="92" name="Busses" color="1" fill="1" visible="no" active="no"/>
<layer number="93" name="Pins" color="2" fill="1" visible="no" active="no"/>
<layer number="94" name="Symbols" color="4" fill="1" visible="no" active="no"/>
<layer number="95" name="Names" color="7" fill="1" visible="no" active="no"/>
<layer number="96" name="Values" color="7" fill="1" visible="no" active="no"/>
<layer number="97" name="Info" color="7" fill="1" visible="no" active="no"/>
<layer number="98" name="Guide" color="6" fill="1" visible="no" active="no"/>
<layer number="250" name="Descript" color="3" fill="1" visible="no" active="no"/>
<layer number="251" name="SMDround" color="12" fill="11" visible="no" active="no"/>
</layers>
<board>
<plain>
<wire x1="0" y1="0" x2="100" y2="0" width="0" layer="20"/>
<wire x1="100" y1="0" x2="100" y2="13.65" width="0" layer="20"/>
<wire x1="100" y1="13.65" x2="0" y2="13.65" width="0" layer="20"/>
<wire x1="0" y1="13.65" x2="0" y2="0" width="0" layer="20"/>
<hole x="3" y="3" drill="3.2"/>
<hole x="97" y="3" drill="3.2"/>
<dimension x1="0" y1="0" x2="3" y2="3" x3="1.5" y3="-6.15" textsize="1.778" layer="47" dtype="horizontal"/>
<dimension x1="0" y1="0" x2="3" y2="3" x3="-3.15" y3="1.5" textsize="1.778" layer="47" dtype="vertical"/>
<dimension x1="98.6" y1="3" x2="95.4" y2="3" x3="97" y3="-3" textsize="1.778" layer="47" dtype="diameter"/>
<dimension x1="0" y1="0" x2="0" y2="13.65" x3="-7.65" y3="6.825" textsize="1.778" layer="47"/>
<dimension x1="0" y1="13.65" x2="100" y2="13.65" x3="50" y3="16.35" textsize="1.778" layer="47"/>
</plain>
<libraries>
<library name="cny70">
<packages>
<package name="4">
<wire x1="3.54" y1="3.921" x2="3.54" y2="-3.921" width="0.1524" layer="21"/>
<wire x1="-3.54" y1="-3.921" x2="-3.54" y2="3.984" width="0.1524" layer="21"/>
<wire x1="-0.5" y1="4" x2="-0.5" y2="3.5" width="0.127" layer="21"/>
<wire x1="-0.5" y1="3.5" x2="0.5" y2="3.5" width="0.127" layer="21"/>
<wire x1="0.5" y1="3.5" x2="0.5" y2="4" width="0.127" layer="21"/>
<wire x1="-0.5" y1="-4" x2="-0.5" y2="-3.5" width="0.127" layer="21"/>
<wire x1="-0.5" y1="-3.5" x2="0.5" y2="-3.5" width="0.127" layer="21"/>
<wire x1="0.5" y1="-3.5" x2="0.5" y2="-4" width="0.127" layer="21"/>
<wire x1="-0.5" y1="4" x2="-3.5" y2="4" width="0.127" layer="21"/>
<wire x1="0.5" y1="4" x2="3.5" y2="4" width="0.127" layer="21"/>
<wire x1="-0.5" y1="-4" x2="-3.5" y2="-4" width="0.127" layer="21"/>
<wire x1="0.5" y1="-4" x2="3.5" y2="-4" width="0.127" layer="21"/>
<pad name="K" x="-1.27" y="-1.27" drill="0.6096" diameter="1.27" rot="R90"/>
<pad name="C" x="1.27" y="-1.27" drill="0.6096" diameter="1.27" rot="R90"/>
<pad name="E" x="1.27" y="1.27" drill="0.6096" diameter="1.27" rot="R90"/>
<pad name="A" x="-1.27" y="1.27" drill="0.6096" diameter="1.27" rot="R90"/>
<text x="-2.921" y="-5.191" size="1.27" layer="27" ratio="10">&gt;VALUE</text>
<text x="-2.667" y="3.921" size="1.27" layer="25" ratio="10">&gt;NAME</text>
<text x="4" y="2" size="0.6096" layer="21" rot="R270">Marking Area</text>
</package>
</packages>
</library>
<library name="zetex">
<description>&lt;b&gt;Zetex Power MOS FETs, Bridges, Diodes&lt;/b&gt;&lt;p&gt;
http://www.zetex.com&lt;p&gt;
&lt;author&gt;Created by librarian@cadsoft.de&lt;/author&gt;</description>
<packages>
<package name="SOT-23">
<description>&lt;b&gt;Small Outline Transistor&lt;/b&gt;</description>
<wire x1="-1.4224" y1="0.381" x2="1.4732" y2="0.381" width="0.1524" layer="21"/>
<wire x1="1.4732" y1="0.381" x2="1.4732" y2="-0.381" width="0.1524" layer="21"/>
<wire x1="1.4732" y1="-0.381" x2="-1.4224" y2="-0.381" width="0.1524" layer="21"/>
<wire x1="-1.4224" y1="-0.381" x2="-1.4224" y2="0.381" width="0.1524" layer="21"/>
<smd name="3" x="0.9906" y="1.016" dx="0.7874" dy="0.889" layer="1"/>
<smd name="2" x="-0.9398" y="1.016" dx="0.7874" dy="0.889" layer="1"/>
<smd name="1" x="0.0254" y="-1.016" dx="0.7874" dy="0.889" layer="1"/>
<text x="-1.397" y="1.778" size="1.27" layer="27" ratio="10">&gt;VALUE</text>
<text x="-1.397" y="3.302" size="1.27" layer="25" ratio="10">&gt;NAME</text>
<rectangle x1="0.7874" y1="0.4318" x2="1.1684" y2="0.9398" layer="51"/>
<rectangle x1="-1.143" y1="0.4318" x2="-0.762" y2="0.9398" layer="51"/>
<rectangle x1="-0.1778" y1="-0.9398" x2="0.2032" y2="-0.4318" layer="51"/>
</package>
</packages>
</library>
<library name="pinhead">
<description>&lt;b&gt;Pin Header Connectors&lt;/b&gt;&lt;p&gt;
&lt;author&gt;Created by librarian@cadsoft.de&lt;/author&gt;</description>
<packages>
<package name="1X10">
<description>&lt;b&gt;PIN HEADER&lt;/b&gt;</description>
<wire x1="7.62" y1="0.635" x2="8.255" y2="1.27" width="0.1524" layer="21"/>
<wire x1="8.255" y1="1.27" x2="9.525" y2="1.27" width="0.1524" layer="21"/>
<wire x1="9.525" y1="1.27" x2="10.16" y2="0.635" width="0.1524" layer="21"/>
<wire x1="10.16" y1="0.635" x2="10.16" y2="-0.635" width="0.1524" layer="21"/>
<wire x1="10.16" y1="-0.635" x2="9.525" y2="-1.27" width="0.1524" layer="21"/>
<wire x1="9.525" y1="-1.27" x2="8.255" y2="-1.27" width="0.1524" layer="21"/>
<wire x1="8.255" y1="-1.27" x2="7.62" y2="-0.635" width="0.1524" layer="21"/>
<wire x1="3.175" y1="1.27" x2="4.445" y2="1.27" width="0.1524" layer="21"/>
<wire x1="4.445" y1="1.27" x2="5.08" y2="0.635" width="0.1524" layer="21"/>
<wire x1="5.08" y1="0.635" x2="5.08" y2="-0.635" width="0.1524" layer="21"/>
<wire x1="5.08" y1="-0.635" x2="4.445" y2="-1.27" width="0.1524" layer="21"/>
<wire x1="5.08" y1="0.635" x2="5.715" y2="1.27" width="0.1524" layer="21"/>
<wire x1="5.715" y1="1.27" x2="6.985" y2="1.27" width="0.1524" layer="21"/>
<wire x1="6.985" y1="1.27" x2="7.62" y2="0.635" width="0.1524" layer="21"/>
<wire x1="7.62" y1="0.635" x2="7.62" y2="-0.635" width="0.1524" layer="21"/>
<wire x1="7.62" y1="-0.635" x2="6.985" y2="-1.27" width="0.1524" layer="21"/>
<wire x1="6.985" y1="-1.27" x2="5.715" y2="-1.27" width="0.1524" layer="21"/>
<wire x1="5.715" y1="-1.27" x2="5.08" y2="-0.635" width="0.1524" layer="21"/>
<wire x1="0" y1="0.635" x2="0.635" y2="1.27" width="0.1524" layer="21"/>
<wire x1="0.635" y1="1.27" x2="1.905" y2="1.27" width="0.1524" layer="21"/>
<wire x1="1.905" y1="1.27" x2="2.54" y2="0.635" width="0.1524" layer="21"/>
<wire x1="2.54" y1="0.635" x2="2.54" y2="-0.635" width="0.1524" layer="21"/>
<wire x1="2.54" y1="-0.635" x2="1.905" y2="-1.27" width="0.1524" layer="21"/>
<wire x1="1.905" y1="-1.27" x2="0.635" y2="-1.27" width="0.1524" layer="21"/>
<wire x1="0.635" y1="-1.27" x2="0" y2="-0.635" width="0.1524" layer="21"/>
<wire x1="3.175" y1="1.27" x2="2.54" y2="0.635" width="0.1524" layer="21"/>
<wire x1="2.54" y1="-0.635" x2="3.175" y2="-1.27" width="0.1524" layer="21"/>
<wire x1="4.445" y1="-1.27" x2="3.175" y2="-1.27" width="0.1524" layer="21"/>
<wire x1="-4.445" y1="1.27" x2="-3.175" y2="1.27" width="0.1524" layer="21"/>
<wire x1="-3.175" y1="1.27" x2="-2.54" y2="0.635" width="0.1524" layer="21"/>
<wire x1="-2.54" y1="0.635" x2="-2.54" y2="-0.635" width="0.1524" layer="21"/>
<wire x1="-2.54" y1="-0.635" x2="-3.175" y2="-1.27" width="0.1524" layer="21"/>
<wire x1="-2.54" y1="0.635" x2="-1.905" y2="1.27" width="0.1524" layer="21"/>
<wire x1="-1.905" y1="1.27" x2="-0.635" y2="1.27" width="0.1524" layer="21"/>
<wire x1="-0.635" y1="1.27" x2="0" y2="0.635" width="0.1524" layer="21"/>
<wire x1="0" y1="0.635" x2="0" y2="-0.635" width="0.1524" layer="21"/>
<wire x1="0" y1="-0.635" x2="-0.635" y2="-1.27" width="0.1524" layer="21"/>
<wire x1="-0.635" y1="-1.27" x2="-1.905" y2="-1.27" width="0.1524" layer="21"/>
<wire x1="-1.905" y1="-1.27" x2="-2.54" y2="-0.635" width="0.1524" layer="21"/>
<wire x1="-7.62" y1="0.635" x2="-6.985" y2="1.27" width="0.1524" layer="21"/>
<wire x1="-6.985" y1="1.27" x2="-5.715" y2="1.27" width="0.1524" layer="21"/>
<wire x1="-5.715" y1="1.27" x2="-5.08" y2="0.635" width="0.1524" layer="21"/>
<wire x1="-5.08" y1="0.635" x2="-5.08" y2="-0.635" width="0.1524" layer="21"/>
<wire x1="-5.08" y1="-0.635" x2="-5.715" y2="-1.27" width="0.1524" layer="21"/>
<wire x1="-5.715" y1="-1.27" x2="-6.985" y2="-1.27" width="0.1524" layer="21"/>
<wire x1="-6.985" y1="-1.27" x2="-7.62" y2="-0.635" width="0.1524" layer="21"/>
<wire x1="-4.445" y1="1.27" x2="-5.08" y2="0.635" width="0.1524" layer="21"/>
<wire x1="-5.08" y1="-0.635" x2="-4.445" y2="-1.27" width="0.1524" layer="21"/>
<wire x1="-3.175" y1="-1.27" x2="-4.445" y2="-1.27" width="0.1524" layer="21"/>
<wire x1="-12.065" y1="1.27" x2="-10.795" y2="1.27" width="0.1524" layer="21"/>
<wire x1="-10.795" y1="1.27" x2="-10.16" y2="0.635" width="0.1524" layer="21"/>
<wire x1="-10.16" y1="0.635" x2="-10.16" y2="-0.635" width="0.1524" layer="21"/>
<wire x1="-10.16" y1="-0.635" x2="-10.795" y2="-1.27" width="0.1524" layer="21"/>
<wire x1="-10.16" y1="0.635" x2="-9.525" y2="1.27" width="0.1524" layer="21"/>
<wire x1="-9.525" y1="1.27" x2="-8.255" y2="1.27" width="0.1524" layer="21"/>
<wire x1="-8.255" y1="1.27" x2="-7.62" y2="0.635" width="0.1524" layer="21"/>
<wire x1="-7.62" y1="0.635" x2="-7.62" y2="-0.635" width="0.1524" layer="21"/>
<wire x1="-7.62" y1="-0.635" x2="-8.255" y2="-1.27" width="0.1524" layer="21"/>
<wire x1="-8.255" y1="-1.27" x2="-9.525" y2="-1.27" width="0.1524" layer="21"/>
<wire x1="-9.525" y1="-1.27" x2="-10.16" y2="-0.635" width="0.1524" layer="21"/>
<wire x1="-12.7" y1="0.635" x2="-12.7" y2="-0.635" width="0.1524" layer="21"/>
<wire x1="-12.065" y1="1.27" x2="-12.7" y2="0.635" width="0.1524" layer="21"/>
<wire x1="-12.7" y1="-0.635" x2="-12.065" y2="-1.27" width="0.1524" layer="21"/>
<wire x1="-10.795" y1="-1.27" x2="-12.065" y2="-1.27" width="0.1524" layer="21"/>
<wire x1="10.795" y1="1.27" x2="12.065" y2="1.27" width="0.1524" layer="21"/>
<wire x1="12.065" y1="1.27" x2="12.7" y2="0.635" width="0.1524" layer="21"/>
<wire x1="12.7" y1="0.635" x2="12.7" y2="-0.635" width="0.1524" layer="21"/>
<wire x1="12.7" y1="-0.635" x2="12.065" y2="-1.27" width="0.1524" layer="21"/>
<wire x1="10.795" y1="1.27" x2="10.16" y2="0.635" width="0.1524" layer="21"/>
<wire x1="10.16" y1="-0.635" x2="10.795" y2="-1.27" width="0.1524" layer="21"/>
<wire x1="12.065" y1="-1.27" x2="10.795" y2="-1.27" width="0.1524" layer="21"/>
<pad name="1" x="-11.43" y="0" drill="1.016" shape="long" rot="R90"/>
<pad name="2" x="-8.89" y="0" drill="1.016" shape="long" rot="R90"/>
<pad name="3" x="-6.35" y="0" drill="1.016" shape="long" rot="R90"/>
<pad name="4" x="-3.81" y="0" drill="1.016" shape="long" rot="R90"/>
<pad name="5" x="-1.27" y="0" drill="1.016" shape="long" rot="R90"/>
<pad name="6" x="1.27" y="0" drill="1.016" shape="long" rot="R90"/>
<pad name="7" x="3.81" y="0" drill="1.016" shape="long" rot="R90"/>
<pad name="8" x="6.35" y="0" drill="1.016" shape="long" rot="R90"/>
<pad name="9" x="8.89" y="0" drill="1.016" shape="long" rot="R90"/>
<pad name="10" x="11.43" y="0" drill="1.016" shape="long" rot="R90"/>
<text x="-12.7762" y="1.8288" size="1.27" layer="25" ratio="10">&gt;NAME</text>
<text x="-12.7" y="-3.175" size="1.27" layer="27">&gt;VALUE</text>
<rectangle x1="8.636" y1="-0.254" x2="9.144" y2="0.254" layer="51"/>
<rectangle x1="6.096" y1="-0.254" x2="6.604" y2="0.254" layer="51"/>
<rectangle x1="3.556" y1="-0.254" x2="4.064" y2="0.254" layer="51"/>
<rectangle x1="1.016" y1="-0.254" x2="1.524" y2="0.254" layer="51"/>
<rectangle x1="-1.524" y1="-0.254" x2="-1.016" y2="0.254" layer="51"/>
<rectangle x1="-4.064" y1="-0.254" x2="-3.556" y2="0.254" layer="51"/>
<rectangle x1="-6.604" y1="-0.254" x2="-6.096" y2="0.254" layer="51"/>
<rectangle x1="-9.144" y1="-0.254" x2="-8.636" y2="0.254" layer="51"/>
<rectangle x1="-11.684" y1="-0.254" x2="-11.176" y2="0.254" layer="51"/>
<rectangle x1="11.176" y1="-0.254" x2="11.684" y2="0.254" layer="51"/>
</package>
</packages>
</library>
<library name="RC-reflow-pads">
<packages>
<package name="0603REC">
<description>&lt;b&gt;0603 package, recommended reflow pads&lt;/b&gt;</description>
<wire x1="-0.356" y1="0.432" x2="0.356" y2="0.432" width="0.1016" layer="51"/>
<wire x1="-0.356" y1="-0.419" x2="0.356" y2="-0.419" width="0.1016" layer="51"/>
<smd name="1" x="-0.8" y="0" dx="0.7" dy="1" layer="1"/>
<smd name="2" x="0.8" y="0" dx="0.7" dy="1" layer="1"/>
<text x="-0.635" y="0.635" size="1.27" layer="25">&gt;NAME</text>
<text x="-0.635" y="-1.905" size="1.27" layer="27">&gt;VALUE</text>
<rectangle x1="-0.8382" y1="-0.4699" x2="-0.3381" y2="0.4801" layer="51"/>
<rectangle x1="0.3302" y1="-0.4699" x2="0.8303" y2="0.4801" layer="51"/>
</package>
</packages>
</library>
</libraries>
<attributes>
</attributes>
<variantdefs>
</variantdefs>
<classes>
<class number="0" name="default" width="0" drill="0">
</class>
</classes>
<designrules name="2 vrstvy trida 4">
<description language="de">&lt;b&gt;EAGLE Design Rules&lt;/b&gt;
&lt;p&gt;
Die Standard-Design-Rules sind so gewählt, dass sie für 
die meisten Anwendungen passen. Sollte ihre Platine 
besondere Anforderungen haben, treffen Sie die erforderlichen
Einstellungen hier und speichern die Design Rules unter 
einem neuen Namen ab.</description>
<description language="en">&lt;b&gt;EAGLE Design Rules&lt;/b&gt;
&lt;p&gt;
The default Design Rules have been set to cover
a wide range of applications. Your particular design
may have different requirements, so please make the
necessary adjustments and save your customized
design rules under a new name.</description>
<param name="layerSetup" value="(1*16)"/>
<param name="mtCopper" value="0.035mm 0.035mm 0.035mm 0.035mm 0.035mm 0.035mm 0.035mm 0.035mm 0.035mm 0.035mm 0.035mm 0.035mm 0.035mm 0.035mm 0.035mm 0.035mm"/>
<param name="mtIsolate" value="1.5mm 0.15mm 0.2mm 0.15mm 0.2mm 0.15mm 0.2mm 0.15mm 0.2mm 0.15mm 0.2mm 0.15mm 0.2mm 0.15mm 0.2mm"/>
<param name="mdWireWire" value="0.3mm"/>
<param name="mdWirePad" value="0.3mm"/>
<param name="mdWireVia" value="0.3mm"/>
<param name="mdPadPad" value="0.3mm"/>
<param name="mdPadVia" value="0.3mm"/>
<param name="mdViaVia" value="0.3mm"/>
<param name="mdSmdPad" value="0.3mm"/>
<param name="mdSmdVia" value="0.3mm"/>
<param name="mdSmdSmd" value="0.3mm"/>
<param name="mdViaViaSameLayer" value="8mil"/>
<param name="mnLayersViaInSmd" value="2"/>
<param name="mdCopperDimension" value="1mm"/>
<param name="mdDrill" value="0.6mm"/>
<param name="mdSmdStop" value="0mil"/>
<param name="msWidth" value="0.3mm"/>
<param name="msDrill" value="0.6mm"/>
<param name="msMicroVia" value="9.99mm"/>
<param name="msBlindViaRatio" value="0.5"/>
<param name="rvPadTop" value="0.25"/>
<param name="rvPadInner" value="0.25"/>
<param name="rvPadBottom" value="0.25"/>
<param name="rvViaOuter" value="0.25"/>
<param name="rvViaInner" value="0.25"/>
<param name="rvMicroViaOuter" value="0.25"/>
<param name="rvMicroViaInner" value="0.25"/>
<param name="rlMinPadTop" value="0.3mm"/>
<param name="rlMaxPadTop" value="20mil"/>
<param name="rlMinPadInner" value="0.3mm"/>
<param name="rlMaxPadInner" value="20mil"/>
<param name="rlMinPadBottom" value="0.3mm"/>
<param name="rlMaxPadBottom" value="20mil"/>
<param name="rlMinViaOuter" value="0.3mm"/>
<param name="rlMaxViaOuter" value="20mil"/>
<param name="rlMinViaInner" value="0.3mm"/>
<param name="rlMaxViaInner" value="20mil"/>
<param name="rlMinMicroViaOuter" value="4mil"/>
<param name="rlMaxMicroViaOuter" value="20mil"/>
<param name="rlMinMicroViaInner" value="4mil"/>
<param name="rlMaxMicroViaInner" value="20mil"/>
<param name="psTop" value="-1"/>
<param name="psBottom" value="-1"/>
<param name="psFirst" value="-1"/>
<param name="psElongationLong" value="100"/>
<param name="psElongationOffset" value="100"/>
<param name="mvStopFrame" value="1"/>
<param name="mvCreamFrame" value="0"/>
<param name="mlMinStopFrame" value="0.1mm"/>
<param name="mlMaxStopFrame" value="0.1mm"/>
<param name="mlMinCreamFrame" value="0mil"/>
<param name="mlMaxCreamFrame" value="0mil"/>
<param name="mlViaStopLimit" value="3mm"/>
<param name="srRoundness" value="0"/>
<param name="srMinRoundness" value="0mil"/>
<param name="srMaxRoundness" value="0mil"/>
<param name="slThermalIsolate" value="10mil"/>
<param name="slThermalsForVias" value="0"/>
<param name="dpMaxLengthDifference" value="10mm"/>
<param name="dpGapFactor" value="2.5"/>
<param name="checkGrid" value="0"/>
<param name="checkAngle" value="1"/>
<param name="checkFont" value="1"/>
<param name="checkRestrict" value="1"/>
<param name="useDiameter" value="13"/>
<param name="maxErrors" value="50"/>
</designrules>
<autorouter>
<pass name="Default">
<param name="RoutingGrid" value="50mil"/>
<param name="AutoGrid" value="1"/>
<param name="Efforts" value="0"/>
<param name="TopRouterVariant" value="1"/>
<param name="tpViaShape" value="round"/>
<param name="PrefDir.1" value="a"/>
<param name="PrefDir.2" value="0"/>
<param name="PrefDir.3" value="0"/>
<param name="PrefDir.4" value="0"/>
<param name="PrefDir.5" value="0"/>
<param name="PrefDir.6" value="0"/>
<param name="PrefDir.7" value="0"/>
<param name="PrefDir.8" value="0"/>
<param name="PrefDir.9" value="0"/>
<param name="PrefDir.10" value="0"/>
<param name="PrefDir.11" value="0"/>
<param name="PrefDir.12" value="0"/>
<param name="PrefDir.13" value="0"/>
<param name="PrefDir.14" value="0"/>
<param name="PrefDir.15" value="0"/>
<param name="PrefDir.16" value="a"/>
<param name="cfVia" value="8"/>
<param name="cfNonPref" value="5"/>
<param name="cfChangeDir" value="2"/>
<param name="cfOrthStep" value="2"/>
<param name="cfDiagStep" value="3"/>
<param name="cfExtdStep" value="0"/>
<param name="cfBonusStep" value="1"/>
<param name="cfMalusStep" value="1"/>
<param name="cfPadImpact" value="4"/>
<param name="cfSmdImpact" value="4"/>
<param name="cfBusImpact" value="0"/>
<param name="cfHugging" value="3"/>
<param name="cfAvoid" value="4"/>
<param name="cfPolygon" value="10"/>
<param name="cfBase.1" value="0"/>
<param name="cfBase.2" value="1"/>
<param name="cfBase.3" value="1"/>
<param name="cfBase.4" value="1"/>
<param name="cfBase.5" value="1"/>
<param name="cfBase.6" value="1"/>
<param name="cfBase.7" value="1"/>
<param name="cfBase.8" value="1"/>
<param name="cfBase.9" value="1"/>
<param name="cfBase.10" value="1"/>
<param name="cfBase.11" value="1"/>
<param name="cfBase.12" value="1"/>
<param name="cfBase.13" value="1"/>
<param name="cfBase.14" value="1"/>
<param name="cfBase.15" value="1"/>
<param name="cfBase.16" value="0"/>
<param name="mnVias" value="20"/>
<param name="mnSegments" value="9999"/>
<param name="mnExtdSteps" value="9999"/>
<param name="mnRipupLevel" value="10"/>
<param name="mnRipupSteps" value="100"/>
<param name="mnRipupTotal" value="100"/>
</pass>
<pass name="Follow-me" refer="Default" active="yes">
</pass>
<pass name="Busses" refer="Default" active="yes">
<param name="cfNonPref" value="4"/>
<param name="cfBusImpact" value="4"/>
<param name="cfHugging" value="0"/>
<param name="mnVias" value="0"/>
</pass>
<pass name="Route" refer="Default" active="yes">
</pass>
<pass name="Optimize1" refer="Default" active="yes">
<param name="cfVia" value="99"/>
<param name="cfExtdStep" value="10"/>
<param name="cfHugging" value="1"/>
<param name="mnExtdSteps" value="1"/>
<param name="mnRipupLevel" value="0"/>
</pass>
<pass name="Optimize2" refer="Optimize1" active="yes">
<param name="cfNonPref" value="0"/>
<param name="cfChangeDir" value="6"/>
<param name="cfExtdStep" value="0"/>
<param name="cfBonusStep" value="2"/>
<param name="cfMalusStep" value="2"/>
<param name="cfPadImpact" value="2"/>
<param name="cfSmdImpact" value="2"/>
<param name="cfHugging" value="0"/>
</pass>
<pass name="Optimize3" refer="Optimize2" active="yes">
<param name="cfChangeDir" value="8"/>
<param name="cfPadImpact" value="0"/>
<param name="cfSmdImpact" value="0"/>
</pass>
<pass name="Optimize4" refer="Optimize3" active="yes">
<param name="cfChangeDir" value="25"/>
</pass>
</autorouter>
<elements>
<element name="U$1" library="cny70" package="4" value="CNY70" x="95" y="9" rot="MR0"/>
<element name="R1" library="RC-reflow-pads" package="0603REC" value="" x="97.725" y="11.475" rot="R90"/>
<element name="R2" library="RC-reflow-pads" package="0603REC" value="" x="91.8" y="11.475" rot="R90"/>
<element name="T1" library="zetex" package="SOT-23" value="" x="90.6" y="5.25" rot="R180">
<attribute name="MF" value="" x="90.6" y="5.25" size="1.778" layer="27" rot="R180" display="off"/>
<attribute name="OC_NEWARK" value="unknown" x="90.6" y="5.25" size="1.778" layer="27" rot="R180" display="off"/>
<attribute name="MPN" value="" x="90.6" y="5.25" size="1.778" layer="27" rot="R180" display="off"/>
<attribute name="OC_FARNELL" value="unknown" x="90.6" y="5.25" size="1.778" layer="27" rot="R180" display="off"/>
</element>
<element name="U$2" library="cny70" package="4" value="CNY70" x="80" y="9" rot="MR0"/>
<element name="R3" library="RC-reflow-pads" package="0603REC" value="" x="82.8" y="11.475" rot="R90"/>
<element name="R4" library="RC-reflow-pads" package="0603REC" value="" x="77.25" y="11.475" rot="R90"/>
<element name="U$3" library="cny70" package="4" value="CNY70" x="65" y="9" rot="MR0"/>
<element name="R5" library="RC-reflow-pads" package="0603REC" value="" x="67.95" y="11.475" rot="R90"/>
<element name="R6" library="RC-reflow-pads" package="0603REC" value="" x="62.25" y="11.475" rot="R90"/>
<element name="U$4" library="cny70" package="4" value="CNY70" x="50" y="9" rot="MR0"/>
<element name="R7" library="RC-reflow-pads" package="0603REC" value="" x="52.8" y="11.475" rot="R90"/>
<element name="R8" library="RC-reflow-pads" package="0603REC" value="" x="47.25" y="11.475" rot="R90"/>
<element name="U$5" library="cny70" package="4" value="CNY70" x="35" y="9" rot="MR0"/>
<element name="R9" library="RC-reflow-pads" package="0603REC" value="" x="37.8" y="11.475" rot="R90"/>
<element name="R10" library="RC-reflow-pads" package="0603REC" value="" x="32.25" y="11.475" rot="R90"/>
<element name="JP1" library="pinhead" package="1X10" value="" x="61.65" y="2.7" rot="R180"/>
<element name="U$6" library="cny70" package="4" value="CNY70" x="20" y="9" rot="MR0"/>
<element name="R11" library="RC-reflow-pads" package="0603REC" value="" x="22.8" y="11.475" rot="R90"/>
<element name="R12" library="RC-reflow-pads" package="0603REC" value="" x="17.25" y="11.475" rot="R90"/>
<element name="U$7" library="cny70" package="4" value="CNY70" x="5" y="9" rot="MR0"/>
<element name="R13" library="RC-reflow-pads" package="0603REC" value="" x="7.8" y="11.475" rot="R90"/>
<element name="R14" library="RC-reflow-pads" package="0603REC" value="" x="2.25" y="11.475" rot="R90"/>
<element name="R15" library="RC-reflow-pads" package="0603REC" value="" x="91.8" y="8.85" rot="R90"/>
<element name="R16" library="RC-reflow-pads" package="0603REC" value="" x="77.25" y="8.85" rot="R90"/>
<element name="R17" library="RC-reflow-pads" package="0603REC" value="" x="62.25" y="8.85" rot="R90"/>
<element name="R18" library="RC-reflow-pads" package="0603REC" value="" x="47.25" y="8.85" rot="R90"/>
<element name="R19" library="RC-reflow-pads" package="0603REC" value="" x="32.25" y="8.85" rot="R90"/>
<element name="R20" library="RC-reflow-pads" package="0603REC" value="" x="17.25" y="8.85" rot="R90"/>
<element name="R21" library="RC-reflow-pads" package="0603REC" value="" x="2.25" y="8.85" rot="R90"/>
</elements>
<signals>
<signal name="N$1">
<contactref element="U$1" pad="A"/>
<contactref element="R1" pad="1"/>
<wire x1="96.27" y1="10.27" x2="97.32" y2="10.27" width="0.3" layer="1"/>
<wire x1="97.32" y1="10.27" x2="97.725" y2="10.675" width="0.3" layer="1"/>
</signal>
<signal name="L5">
<contactref element="U$5" pad="C"/>
<contactref element="JP1" pad="8"/>
<contactref element="R19" pad="1"/>
<wire x1="32.25" y1="8.05" x2="33.41" y2="8.05" width="0.3" layer="1"/>
<wire x1="33.41" y1="8.05" x2="33.73" y2="7.73" width="0.3" layer="1"/>
<wire x1="55.3" y1="2.7" x2="55.3" y2="3.35" width="0.3" layer="1"/>
<wire x1="55.3" y1="3.35" x2="52.65" y2="6" width="0.3" layer="1"/>
<wire x1="52.65" y1="6" x2="35.46" y2="6" width="0.3" layer="1"/>
<wire x1="35.46" y1="6" x2="33.73" y2="7.73" width="0.3" layer="1"/>
</signal>
<signal name="GND">
<contactref element="U$1" pad="E"/>
<contactref element="T1" pad="2"/>
<contactref element="U$2" pad="E"/>
<contactref element="U$3" pad="E"/>
<contactref element="U$4" pad="E"/>
<contactref element="U$5" pad="E"/>
<contactref element="JP1" pad="2"/>
<contactref element="U$6" pad="E"/>
<contactref element="U$7" pad="E"/>
<wire x1="18.75" y1="11.475" x2="33.75" y2="11.475" width="0.3" layer="1"/>
<wire x1="33.75" y1="11.475" x2="48.75" y2="11.475" width="0.3" layer="1"/>
<wire x1="48.75" y1="11.475" x2="63.6" y2="11.475" width="0.3" layer="1"/>
<wire x1="63.6" y1="11.475" x2="78.75" y2="11.475" width="0.3" layer="1"/>
<wire x1="18.73" y1="10.27" x2="18.73" y2="11.455" width="0.3" layer="1"/>
<wire x1="18.73" y1="11.455" x2="18.75" y2="11.475" width="0.3" layer="1"/>
<wire x1="33.73" y1="10.27" x2="33.73" y2="11.455" width="0.3" layer="1"/>
<wire x1="48.73" y1="10.27" x2="48.73" y2="11.455" width="0.3" layer="1"/>
<wire x1="48.73" y1="11.455" x2="48.75" y2="11.475" width="0.3" layer="1"/>
<wire x1="63.73" y1="10.27" x2="63.73" y2="11.345" width="0.3" layer="1"/>
<wire x1="63.73" y1="11.345" x2="63.6" y2="11.475" width="0.3" layer="1"/>
<wire x1="78.73" y1="10.27" x2="78.73" y2="11.455" width="0.3" layer="1"/>
<wire x1="33.73" y1="11.455" x2="33.75" y2="11.475" width="0.3" layer="1"/>
<wire x1="78.73" y1="11.455" x2="78.75" y2="11.475" width="0.3" layer="1"/>
<wire x1="78.75" y1="11.475" x2="92.525" y2="11.475" width="0.3" layer="1"/>
<wire x1="92.525" y1="11.475" x2="93.73" y2="10.27" width="0.3" layer="1"/>
<wire x1="3.73" y1="10.27" x2="4.935" y2="11.475" width="0.3" layer="1"/>
<wire x1="4.935" y1="11.475" x2="18.71" y2="11.475" width="0.3" layer="1"/>
<wire x1="18.71" y1="11.475" x2="18.73" y2="11.455" width="0.3" layer="1"/>
<wire x1="70.54" y1="2.7" x2="70.54" y2="3.49" width="0.3" layer="1"/>
<wire x1="70.54" y1="3.49" x2="71.85" y2="4.8" width="0.3" layer="1"/>
<wire x1="71.85" y1="4.8" x2="73.65" y2="4.8" width="0.3" layer="1"/>
<wire x1="73.65" y1="4.8" x2="75.15" y2="3.3" width="0.3" layer="1"/>
<wire x1="75.15" y1="3.3" x2="90.7558" y2="3.3" width="0.3" layer="1"/>
<wire x1="91.5398" y1="4.234" x2="91.5398" y2="4.084" width="0.3" layer="1"/>
<wire x1="91.5398" y1="4.084" x2="90.7558" y2="3.3" width="0.3" layer="1"/>
<wire x1="93.73" y1="10.27" x2="95" y2="9" width="0.3" layer="1"/>
<wire x1="96.75" y1="9" x2="97.5" y2="8.25" width="0.3" layer="1"/>
<wire x1="97.5" y1="8.25" x2="97.5" y2="7.35" width="0.3" layer="1"/>
<wire x1="97.5" y1="7.35" x2="96.75" y2="6.6" width="0.3" layer="1"/>
<wire x1="96.75" y1="6.6" x2="95.7" y2="6.6" width="0.3" layer="1"/>
<wire x1="95.7" y1="6.6" x2="93.334" y2="4.234" width="0.3" layer="1"/>
<wire x1="93.334" y1="4.234" x2="91.5398" y2="4.234" width="0.3" layer="1"/>
<polygon width="0.3" layer="1">
<vertex x="0" y="0"/>
<vertex x="0" y="13.65"/>
<vertex x="100.05" y="13.65"/>
<vertex x="100.05" y="0"/>
</polygon>
<wire x1="95" y1="9" x2="96.75" y2="9" width="0.3" layer="1"/>
</signal>
<signal name="LED">
<contactref element="T1" pad="1"/>
<contactref element="U$1" pad="K"/>
<contactref element="U$2" pad="K"/>
<contactref element="U$3" pad="K"/>
<contactref element="U$4" pad="K"/>
<contactref element="U$5" pad="K"/>
<contactref element="U$6" pad="K"/>
<contactref element="U$7" pad="K"/>
<wire x1="6.27" y1="7.73" x2="7.39" y2="8.85" width="0.3" layer="1"/>
<wire x1="7.39" y1="8.85" x2="21.15" y2="8.85" width="0.3" layer="1"/>
<wire x1="21.15" y1="8.85" x2="36.15" y2="8.85" width="0.3" layer="1"/>
<wire x1="36.15" y1="8.85" x2="51.3" y2="8.85" width="0.3" layer="1"/>
<wire x1="51.3" y1="8.85" x2="66.3" y2="8.85" width="0.3" layer="1"/>
<wire x1="66.3" y1="8.85" x2="81.3" y2="8.85" width="0.3" layer="1"/>
<wire x1="21.27" y1="7.73" x2="21.27" y2="8.73" width="0.3" layer="1"/>
<wire x1="21.27" y1="8.73" x2="21.15" y2="8.85" width="0.3" layer="1"/>
<wire x1="36.27" y1="7.73" x2="36.27" y2="8.73" width="0.3" layer="1"/>
<wire x1="36.27" y1="8.73" x2="36.15" y2="8.85" width="0.3" layer="1"/>
<wire x1="51.27" y1="7.73" x2="51.27" y2="8.82" width="0.3" layer="1"/>
<wire x1="51.27" y1="8.82" x2="51.3" y2="8.85" width="0.3" layer="1"/>
<wire x1="66.27" y1="7.73" x2="66.27" y2="8.82" width="0.3" layer="1"/>
<wire x1="66.27" y1="8.82" x2="66.3" y2="8.85" width="0.3" layer="1"/>
<wire x1="81.27" y1="7.73" x2="81.27" y2="8.82" width="0.3" layer="1"/>
<wire x1="81.27" y1="8.82" x2="81.3" y2="8.85" width="0.3" layer="1"/>
<wire x1="96.27" y1="7.73" x2="95.4" y2="7.73" width="0.3" layer="1"/>
<wire x1="95.4" y1="7.73" x2="95.32" y2="7.73" width="0.3" layer="1"/>
<wire x1="81.3" y1="8.85" x2="94.2" y2="8.85" width="0.3" layer="1"/>
<wire x1="94.2" y1="8.85" x2="95.32" y2="7.73" width="0.3" layer="1"/>
<wire x1="90.5746" y1="6.266" x2="93.936" y2="6.266" width="0.3" layer="1"/>
<wire x1="93.936" y1="6.266" x2="95.4" y2="7.73" width="0.3" layer="1"/>
</signal>
<signal name="+5V">
<contactref element="R2" pad="2"/>
<contactref element="R1" pad="2"/>
<contactref element="R4" pad="2"/>
<contactref element="R3" pad="2"/>
<contactref element="R6" pad="2"/>
<contactref element="R5" pad="2"/>
<contactref element="R8" pad="2"/>
<contactref element="R7" pad="2"/>
<contactref element="R10" pad="2"/>
<contactref element="R9" pad="2"/>
<contactref element="JP1" pad="1"/>
<contactref element="R12" pad="2"/>
<contactref element="R11" pad="2"/>
<contactref element="R14" pad="2"/>
<contactref element="R13" pad="2"/>
<wire x1="2.25" y1="12.275" x2="7.8" y2="12.275" width="0.3" layer="1"/>
<wire x1="7.8" y1="12.275" x2="17.25" y2="12.275" width="0.3" layer="1"/>
<wire x1="17.25" y1="12.275" x2="22.8" y2="12.275" width="0.3" layer="1"/>
<wire x1="22.8" y1="12.275" x2="32.25" y2="12.275" width="0.3" layer="1"/>
<wire x1="32.25" y1="12.275" x2="37.8" y2="12.275" width="0.3" layer="1"/>
<wire x1="37.8" y1="12.275" x2="47.25" y2="12.275" width="0.3" layer="1"/>
<wire x1="47.25" y1="12.275" x2="52.8" y2="12.275" width="0.3" layer="1"/>
<wire x1="52.8" y1="12.275" x2="62.25" y2="12.275" width="0.3" layer="1"/>
<wire x1="62.25" y1="12.275" x2="67.95" y2="12.275" width="0.3" layer="1"/>
<wire x1="67.95" y1="12.275" x2="77.25" y2="12.275" width="0.3" layer="1"/>
<wire x1="77.25" y1="12.275" x2="82.8" y2="12.275" width="0.3" layer="1"/>
<wire x1="82.8" y1="12.275" x2="91.8" y2="12.275" width="0.3" layer="1"/>
<wire x1="73.08" y1="2.7" x2="92.7" y2="2.7" width="0.3" layer="1"/>
<wire x1="92.7" y1="2.7" x2="96" y2="6" width="0.3" layer="1"/>
<wire x1="96" y1="6" x2="97.05" y2="6" width="0.3" layer="1"/>
<wire x1="97.05" y1="6" x2="98.1" y2="7.05" width="0.3" layer="1"/>
<wire x1="91.8" y1="12.275" x2="97.725" y2="12.275" width="0.3" layer="1"/>
<wire x1="98.1" y1="7.05" x2="98.1" y2="9.3" width="0.3" layer="1"/>
<wire x1="98.1" y1="9.3" x2="98.7" y2="9.9" width="0.3" layer="1"/>
<wire x1="98.7" y1="9.9" x2="98.7" y2="11.3" width="0.3" layer="1"/>
<wire x1="98.7" y1="11.3" x2="97.725" y2="12.275" width="0.3" layer="1"/>
</signal>
<signal name="N$3">
<contactref element="U$2" pad="A"/>
<contactref element="R3" pad="1"/>
<wire x1="81.27" y1="10.27" x2="82.395" y2="10.27" width="0.3" layer="1"/>
<wire x1="82.395" y1="10.27" x2="82.8" y2="10.675" width="0.3" layer="1"/>
</signal>
<signal name="N$4">
<contactref element="U$3" pad="A"/>
<contactref element="R5" pad="1"/>
<wire x1="66.27" y1="10.27" x2="67.545" y2="10.27" width="0.3" layer="1"/>
<wire x1="67.545" y1="10.27" x2="67.95" y2="10.675" width="0.3" layer="1"/>
</signal>
<signal name="N$5">
<contactref element="U$4" pad="A"/>
<contactref element="R7" pad="1"/>
<wire x1="51.27" y1="10.27" x2="52.395" y2="10.27" width="0.3" layer="1"/>
<wire x1="52.395" y1="10.27" x2="52.8" y2="10.675" width="0.3" layer="1"/>
</signal>
<signal name="N$6">
<contactref element="U$5" pad="A"/>
<contactref element="R9" pad="1"/>
<wire x1="36.27" y1="10.27" x2="37.395" y2="10.27" width="0.3" layer="1"/>
<wire x1="37.395" y1="10.27" x2="37.8" y2="10.675" width="0.3" layer="1"/>
</signal>
<signal name="L1">
<contactref element="U$1" pad="C"/>
<contactref element="JP1" pad="4"/>
<contactref element="R15" pad="1"/>
<wire x1="91.8" y1="8.05" x2="93.41" y2="8.05" width="0.3" layer="1"/>
<wire x1="93.41" y1="8.05" x2="93.73" y2="7.73" width="0.3" layer="1"/>
<wire x1="65.46" y1="2.7" x2="65.46" y2="3.96" width="0.3" layer="1"/>
<wire x1="65.46" y1="3.96" x2="68.1" y2="6.6" width="0.3" layer="1"/>
<wire x1="90.25" y1="8.05" x2="91.8" y2="8.05" width="0.3" layer="1"/>
<wire x1="88.8" y1="6.6" x2="90.25" y2="8.05" width="0.3" layer="1"/>
<wire x1="68.1" y1="6.6" x2="88.8" y2="6.6" width="0.3" layer="1"/>
</signal>
<signal name="L2">
<contactref element="U$2" pad="C"/>
<contactref element="JP1" pad="5"/>
<contactref element="R16" pad="1"/>
<wire x1="77.25" y1="8.05" x2="78.41" y2="8.05" width="0.3" layer="1"/>
<wire x1="78.41" y1="8.05" x2="78.73" y2="7.73" width="0.3" layer="1"/>
<wire x1="62.92" y1="2.7" x2="62.92" y2="2.77" width="0.3" layer="1"/>
<wire x1="62.92" y1="2.77" x2="68.1" y2="7.95" width="0.3" layer="1"/>
<wire x1="68.1" y1="7.95" x2="77.15" y2="7.95" width="0.3" layer="1"/>
<wire x1="77.15" y1="7.95" x2="77.25" y2="8.05" width="0.3" layer="1"/>
</signal>
<signal name="L3">
<contactref element="U$3" pad="C"/>
<contactref element="JP1" pad="6"/>
<contactref element="R17" pad="1"/>
<wire x1="62.25" y1="8.05" x2="63.41" y2="8.05" width="0.3" layer="1"/>
<wire x1="63.41" y1="8.05" x2="63.73" y2="7.73" width="0.3" layer="1"/>
<wire x1="60.38" y1="2.7" x2="60.38" y2="6.18" width="0.3" layer="1"/>
<wire x1="60.38" y1="6.18" x2="62.25" y2="8.05" width="0.3" layer="1"/>
</signal>
<signal name="L4">
<contactref element="U$4" pad="C"/>
<contactref element="JP1" pad="7"/>
<contactref element="R18" pad="1"/>
<wire x1="47.25" y1="8.05" x2="48.41" y2="8.05" width="0.3" layer="1"/>
<wire x1="48.41" y1="8.05" x2="48.73" y2="7.73" width="0.3" layer="1"/>
<wire x1="57.84" y1="2.7" x2="57.84" y2="3.21" width="0.3" layer="1"/>
<wire x1="57.84" y1="3.21" x2="54.45" y2="6.6" width="0.3" layer="1"/>
<wire x1="54.45" y1="6.6" x2="49.86" y2="6.6" width="0.3" layer="1"/>
<wire x1="49.86" y1="6.6" x2="48.73" y2="7.73" width="0.3" layer="1"/>
</signal>
<signal name="PWM_IN">
<contactref element="T1" pad="3"/>
<contactref element="JP1" pad="3"/>
<wire x1="68" y1="2.7" x2="68" y2="4.1" width="0.3" layer="1"/>
<wire x1="68" y1="4.1" x2="69.3" y2="5.4" width="0.3" layer="1"/>
<wire x1="69.3" y1="5.4" x2="73.95" y2="5.4" width="0.3" layer="1"/>
<wire x1="73.95" y1="5.4" x2="75.45" y2="3.9" width="0.3" layer="1"/>
<wire x1="75.45" y1="3.9" x2="89.2754" y2="3.9" width="0.3" layer="1"/>
<wire x1="89.2754" y1="3.9" x2="89.6094" y2="4.234" width="0.3" layer="1"/>
</signal>
<signal name="N$2">
<contactref element="U$6" pad="A"/>
<contactref element="R11" pad="1"/>
<wire x1="21.27" y1="10.27" x2="22.395" y2="10.27" width="0.3" layer="1"/>
<wire x1="22.395" y1="10.27" x2="22.8" y2="10.675" width="0.3" layer="1"/>
</signal>
<signal name="N$7">
<contactref element="U$7" pad="A"/>
<contactref element="R13" pad="1"/>
<wire x1="6.27" y1="10.27" x2="7.395" y2="10.27" width="0.3" layer="1"/>
<wire x1="7.395" y1="10.27" x2="7.8" y2="10.675" width="0.3" layer="1"/>
</signal>
<signal name="L6">
<contactref element="U$6" pad="C"/>
<contactref element="JP1" pad="9"/>
<contactref element="R20" pad="1"/>
<wire x1="17.25" y1="8.05" x2="18.41" y2="8.05" width="0.3" layer="1"/>
<wire x1="18.41" y1="8.05" x2="18.73" y2="7.73" width="0.3" layer="1"/>
<wire x1="52.76" y1="2.7" x2="52.76" y2="3.94" width="0.3" layer="1"/>
<wire x1="52.76" y1="3.94" x2="51.3" y2="5.4" width="0.3" layer="1"/>
<wire x1="51.3" y1="5.4" x2="21.06" y2="5.4" width="0.3" layer="1"/>
<wire x1="18.73" y1="7.73" x2="21.06" y2="5.4" width="0.3" layer="1"/>
</signal>
<signal name="L7">
<contactref element="U$7" pad="C"/>
<contactref element="JP1" pad="10"/>
<contactref element="R21" pad="1"/>
<wire x1="2.25" y1="8.05" x2="3.41" y2="8.05" width="0.3" layer="1"/>
<wire x1="3.41" y1="8.05" x2="3.73" y2="7.73" width="0.3" layer="1"/>
<wire x1="50.22" y1="2.7" x2="8.76" y2="2.7" width="0.3" layer="1"/>
<wire x1="3.73" y1="7.73" x2="8.76" y2="2.7" width="0.3" layer="1"/>
</signal>
<signal name="N$8">
<contactref element="R2" pad="1"/>
<contactref element="R15" pad="2"/>
<wire x1="91.8" y1="10.675" x2="91.8" y2="9.65" width="0.3" layer="1"/>
</signal>
<signal name="N$9">
<contactref element="R4" pad="1"/>
<contactref element="R16" pad="2"/>
<wire x1="77.25" y1="10.675" x2="77.25" y2="9.65" width="0.3" layer="1"/>
</signal>
<signal name="N$10">
<contactref element="R6" pad="1"/>
<contactref element="R17" pad="2"/>
<wire x1="62.25" y1="10.675" x2="62.25" y2="9.65" width="0.3" layer="1"/>
</signal>
<signal name="N$11">
<contactref element="R8" pad="1"/>
<contactref element="R18" pad="2"/>
<wire x1="47.25" y1="10.675" x2="47.25" y2="9.65" width="0.3" layer="1"/>
</signal>
<signal name="N$12">
<contactref element="R10" pad="1"/>
<contactref element="R19" pad="2"/>
<wire x1="32.25" y1="10.675" x2="32.25" y2="9.65" width="0.3" layer="1"/>
</signal>
<signal name="N$13">
<contactref element="R12" pad="1"/>
<contactref element="R20" pad="2"/>
<wire x1="17.25" y1="10.675" x2="17.25" y2="9.65" width="0.3" layer="1"/>
</signal>
<signal name="N$14">
<contactref element="R14" pad="1"/>
<contactref element="R21" pad="2"/>
<wire x1="2.25" y1="9.65" x2="2.25" y2="10.675" width="0" layer="19" extent="1-1"/>
</signal>
</signals>
</board>
</drawing>
</eagle>
